Project 1
…
data %>% group_by(Weekday) %>% summarize_if(is.numeric, list(ean = mean, 
    sd = sd, min = min, max = max, quantile = quantile))

## # A tibble: 10 x 21
## # Groups:   Weekday [2]
##    Weekday `Distance (mi)_… `Steps (count)_… Episodes_ean Movies_ean
##    <chr>              <dbl>            <dbl>        <dbl>      <dbl>
##  1 no                  1.20            2870.         2.46      0.269
##  2 no                  1.20            2870.         2.46      0.269
##  3 no                  1.20            2870.         2.46      0.269
##  4 no                  1.20            2870.         2.46      0.269
##  5 no                  1.20            2870.         2.46      0.269
##  6 yes                 1.33            3181.         2.72      0.172
##  7 yes                 1.33            3181.         2.72      0.172
##  8 yes                 1.33            3181.         2.72      0.172
##  9 yes                 1.33            3181.         2.72      0.172
## 10 yes                 1.33            3181.         2.72      0.172
## # … with 16 more variables: `Distance (mi)_sd` <dbl>, `Steps (count)_sd` <dbl>,
## #   Episodes_sd <dbl>, Movies_sd <dbl>, `Distance (mi)_min` <dbl>, `Steps
## #   (count)_min` <dbl>, Episodes_min <dbl>, Movies_min <dbl>, `Distance
## #   (mi)_max` <dbl>, `Steps (count)_max` <dbl>, Episodes_max <dbl>,
## #   Movies_max <dbl>, `Distance (mi)_quantile` <dbl>, `Steps
## #   (count)_quantile` <dbl>, Episodes_quantile <dbl>, Movies_quantile <dbl>

data %>% select(Weekday, Episodes, Movies) %>% mutate(episodes_norm = Episodes/mean(Episodes, 
    na.rm = TRUE))

##    Weekday Episodes Movies episodes_norm
## 1      yes        0      0     0.0000000
## 2      yes        0      0     0.0000000
## 3      yes        8      0     3.0252101
## 4      yes        2      0     0.7563025
## 5       no       19      2     7.1848739
## 6      yes       13      0     4.9159664
## 7      yes        0      0     0.0000000
## 8      yes        9      0     3.4033613
## 9      yes        5      0     1.8907563
## 10     yes        1      1     0.3781513
## 11     yes        4      1     1.5126050
## 12     yes        5      0     1.8907563
## 13      no        0      1     0.0000000
## 14     yes        0      0     0.0000000
## 15      no        1      0     0.3781513
## 16      no        0      0     0.0000000
## 17     yes        2      0     0.7563025
## 18      no        9      0     3.4033613
## 19     yes        0      0     0.0000000
## 20     yes        2      0     0.7563025
## 21     yes        2      0     0.7563025
## 22     yes        0      0     0.0000000
## 23      no        7      0     2.6470588
## 24     yes        4      1     1.5126050
## 25     yes       12      0     4.5378151
##  [ reached 'max' / getOption("max.print") -- omitted 65 rows ]
…
